…
    ## ─ Conflicts ───────────────────── tidyverse_conflicts() ─
    ## x dplyr::filter() masks stats::filter()
    ## x dplyr::lag()    masks stats::lag()

``` r
library(dplyr)
library(ggplot2)
data("instacart")
data("brfss_smart2010")
instacart
```

    ## # A tibble: 1,384,617 x 15
    ##    order_id product_id add_to_cart_order reordered user_id eval_set order_number
    ##       <int>      <int>             <int>     <int>   <int> <chr>           <int>
    ##  1        1      49302                 1         1  112108 train               4
    ##  2        1      11109                 2         1  112108 train               4
    ##  3        1      10246                 3         0  112108 train               4
    ##  4        1      49683                 4         0  112108 train               4
    ##  5        1      43633                 5         1  112108 train               4
    ##  6        1      13176                 6         0  112108 train               4
    ##  7        1      47209                 7         0  112108 train               4
    ##  8        1      22035                 8         1  112108 train               4
    ##  9       36      39612                 1         0   79431 train              23
    ## 10       36      19660                 2         1   79431 train              23
    ## # … with 1,384,607 more rows, and 8 more variables: order_dow <int>,
    ## #   order_hour_of_day <int>, days_since_prior_order <int>, product_name <chr>,
    ## #   aisle_id <int>, department_id <int>, aisle <chr>, department <chr>
…
``` r
aisle_df1=
  instacart%>%
  group_by(aisle)%>%
  summarize(n_obs=n())%>%
  mutate(rank=rank(n_obs))

aisle_df2=
  aisle_df1%>%
  filter(n_obs>=10000)%>%
  select(-rank)
aisle_df2
```

    ## # A tibble: 39 x 2
    ##    aisle                    n_obs
    ##    <chr>                    <int>
    ##  1 baby food formula        13198
    ##  2 baking ingredients       13088
    ##  3 bread                    23635
    ##  4 butter                   10575
    ##  5 candy chocolate          11453
    ##  6 canned jarred vegetables 12679
    ##  7 canned meals beans       11774
    ##  8 cereal                   16201
    ##  9 chips pretzels           31269
    ## 10 crackers                 19592
    ## # … with 29 more rows
…
